<svg xmlns="http://www.w3.org/2000/svg" width="399" height="341">
  <g fill="#0987C1" fill-rule="evenodd" transform="translate(-73.59 -40.475)">
    <path d="M222.488 46.946c50.304-22.447 170.316 11.612 138.17 133.52-32.148 121.908-107.195 222.408-202.962 196.34-95.766-26.069-85.125-117.754-80.932-140.18 10.139-54.23 88.38-164.093 145.724-189.68"/>
    <ellipse cx="423.369" cy="279.23" rx="48.801" ry="49.239"/>
  </g>
</svg>
